  % Total    % Received % Xferd  Average Speed   Time    Time     Time  Current
                                 Dload  Upload   Total   Spent    Left  Speed
  0     0    0     0    0     0      0      0 --:--:-- --:--:-- --:--:--     0{"data":[{"id":"shape_3963","name":"009-24-hours.svg","type":"shape","mime_type":"image\/svg+xml","size":8709,"url":"\/storage\/shapes\/normalized\/time\/009-24-hours.svg","thumbnail_url":"\/storage\/shapes\/normalized\/time\/009-24-hours.svg","thumbnail":"\/storage\/shapes\/normalized\/time\/009-24-hours.svg","thumbnailUrl":"\/storage\/shapes\/normalized\/time\/009-24-hours.svg","width":null,"height":null,"duration":null,"source":"internal","source_id":"3963","license":"Free for commercial use","attribution":null,"tags":["24 hours","time","clock","around the clock","continuous","day","service","time","time symbol"],"is_premium":false,"metadata":{"category":"time","shapeCategory":"time symbol","description":"Circular clock-like shape with arrows, representing 24-hour continuous service or time cycle.","keywords":["24 hours","time","clock","around the clock","continuous","day","service"],"filename":"009-24-hours.svg","originalFilename":"009-24-hours.svg"},"created_at":null,"updated_at":null},{"id":"shape_3632","name":"029-wheelbarrow.svg","type":"shape","mime_type":"image\/svg+xml","size":3202,"url":"\/storage\/shapes\/normalized\/construction\/029-wheelbarrow.svg","thumbnail_url":"\/storage\/shapes\/normalized\/construction\/029-wheelbarrow.svg","thumbnail":"\/storage\/shapes\/normalized\/construction\/029-wheelbarrow.svg","thumbnailUrl":"\/storage\/shapes\/normalized\/construction\/029-wheelbarrow.svg","width":null,"height":null,"duration":null,"source":"internal","source_id":"3632","license":"Free for commercial use","attribution":null,"tags":["wheelbarrow","vehicle","construction","transport","cart","construction","equipment"],"is_premium":false,"metadata":{"category":"construction","shapeCategory":"equipment","description":"A wheelbarrow, a small hand-propelled vehicle used to carry loads in construction.","keywords":["wheelbarrow","vehicle","construction","transport","cart"],"filename":"029-wheelbarrow.svg","originalFilename":"029-wheelbarrow.svg"},"created_at":null,"updated_at":null},{"id":"shape_4749","name":"1.svg","type":"shape","mime_type":"image\/svg+xml","size":1467,"url":"\/storage\/shapes\/normalized\/arrows\/1.svg","thumbnail_url":"\/storage\/shapes\/normalized\/arrows\/1.svg","thumbnail":"\/storage\/shapes\/normalized\/arrows\/1.svg","thumbnailUrl":"\/storage\/shapes\/normalized\/arrows\/1.svg","width":null,"height":null,"duration":null,"source":"internal","source_id":"4749","license":"Free for commercial use","attribution":null,"tags":["arrow","circular","loop","direction","arrows","circular arrow"],"is_premium":false,"metadata":{"category":"arrows","shapeCategory":"circular arrow","description":"A circular arrow design, representing a loop or repeat direction.","keywords":["arrow","circular","loop","direction"],"filename":"1.svg","originalFilename":"1.svg"},"created_at":null,"updated_at":null},{"id":"shape_4775","name":"10.svg","type":"shape","mime_type":"image\/svg+xml","size":1284,"url":"\/storage\/shapes\/normalized\/arrows\/10.svg","thumbnail_url":"\/storage\/shapes\/normalized\/arrows\/10.svg","thumbnail":"\/storage\/shapes\/normalized\/arrows\/10.svg","thumbnailUrl":"\/storage\/shapes\/normalized\/arrows\/10.svg","width":null,"height":null,"duration":null,"source":"internal","source_id":"4775","license":"Free for commercial use","attribution":null,"tags":["arrow","right","forward","navigation","arrows","right arrow"],"is_premium":false,"metadata":{"category":"arrows","shapeCategory":"right arrow","description":"A right-pointing arrow, typically used for forward navigation or next actions.","keywords":["arrow","right","forward","navigation"],"filename":"10.svg","originalFilename":"10.svg"},"created_at":null,"updated_at":null},{"id":"shape_4780","name":"11.svg","type":"shape","mime_type":"image\/svg+xml","size":1356,"url":"\/storage\/shapes\/normalized\/arrows\/11.svg","thumbnail_url":"\/storage\/shapes\/normalized\/arrows\/11.svg","thumbnail":"\/storage\/shapes\/normalized\/arrows\/11.svg","thumbnailUrl":"\/storage\/shapes\/normalized\/arrows\/11.svg","width":null,"height":null,"duration":null,"sou100  4655    0  4655    0     0  64501      0 --:--:-- --:--:-- --:--:-- 64652
rce":"internal","source_id":"4780","license":"Free for commercial use","attribution":null,"tags":["arrow","loop","circular","repeat","arrows","circular arrow"],"is_premium":false,"metadata":{"category":"arrows","shapeCategory":"circular arrow","description":"A circular arrow, representing a loop or repeat action.","keywords":["arrow","loop","circular","repeat"],"filename":"11.svg","originalFilename":"11.svg"},"created_at":null,"updated_at":null}],"pagination":{"page":1,"limit":5,"total":87,"totalPages":18},"message":"Found 87 shape results from shapes"}